Homework 2
…
df_disasters %>% # find most expensive disasters by year, by grouping by year 
  group_by(year) %>% 
  summarize(total_cpicost = sum(cpi_adjusted_cost, na.rm = TRUE)) %>% # then add up costs by year
  arrange(desc(total_cpicost)) # and display in descending order to answer the question

#> # A tibble: 44 × 2
#>     year total_cpicost
#>    <dbl>         <dbl>
#>  1  2017       395936.
#>  2  2005       268593.
#>  3  2022       188353.
#>  4  2024       182714.
#>  5  2021       164299.
#>  6  2012       158736.
#>  7  2020       120585.
#>  8  2018       116034.
#>  9  2011        97936.
#> 10  2008        93956.
#> # ℹ 34 more rows
…
